{
  "id": "optifine",
  "name": "OptiFine",
  "author": "sp614x",
  "summary": "Installs OptiFine for Aristois. Supports 1.14 to 1.16.4.",
  "description": [
    "Installs OptiFine for Aristois 1.14 through 1.16.4"
  ],
  "version": "1",
  "conflicts": [
    "sodium",
    "lithium",
    "phosphor"
  ]
}
