{
  "updated": "Sat Dec 12 2020 18:43:40 GMT+0100 (Central European Standard Time)",
  "mods": [
    {
      "fabric": {
        "fileName": "baritone-%mc%",
        "versions": {
          "1.16.4": {
            "url": "https://gitlab.com/CDAGaming/fabritone/builds/artifacts/fabric/1.16.3/raw/build/libs/baritone-1.6.1.jar?job=build",
            "version": "1.6.1",
            "scheme": "-v2"
          },
          "1.16.3": {
            "url": "https://gitlab.com/CDAGaming/fabritone/builds/artifacts/fabric/1.16.3/raw/build/libs/baritone-1.6.1.jar?job=build",
            "version": "1.6.1",
            "scheme": "-v2"
          },
          "1.16.2": {
            "url": "https://gitlab.com/CDAGaming/fabritone/builds/artifacts/fabric/1.16.3/raw/build/libs/baritone-1.6.1.jar?job=build",
            "version": "1.6.1",
            "scheme": "-v2"
          },
          "1.16.1": {
            "url": "https://gitlab.com/CDAGaming/fabritone/builds/artifacts/fabric/1.16.1/raw/build/libs/baritone-1.6.1.jar?job=build",
            "version": "1.6.1",
            "scheme": "-v2"
          },
          "1.15.2": {
            "url": "https://gitlab.com/CDAGaming/fabritone/builds/artifacts/fabric/1.15.2/raw/build/libs/baritone-1.5.3.jar?job=build",
            "version": "1.5.3",
            "scheme": "-v2"
          },
          "1.14.4": {
            "url": "https://gitlab.com/CDAGaming/fabritone/builds/artifacts/fabric/1.14.4/raw/build/libs/baritone-1.4.6.jar?job=build",
            "version": "1.4.6",
            "scheme": "-v2"
          }
        }
      },
      "id": "Baritone",
      "name": "Baritone",
      "author": "leijurv, Brady, CDAGaming",
      "summary": "Google maps for minecraft. Supports 1.14.4 through 1.16.4",
      "description": [
        "This addon lets you \"automine\", automatically get from A to B, and much more!",
        "Currently supported versions are: 1.14.4 through 1.16.4",
        "Fabric Source at https://gitlab.com/CDAGaming/fabritone",
        "Source and Issue Tracker at https://github.com/cabaletta/baritone"
      ],
      "version": "6",
      "conflicts": [
        "sodium"
      ],
      "link": "",
      "sha1": "0"
    },
    {
      "fabric": {
        "fileName": "CraftPresence-%mc%",
        "versions": {
          "1.16.4": {
            "url": "https://media.forgecdn.net/files/3106/439/CraftPresence-Fabric-1.16.4-Release-1.7.5.jar",
            "version": "1.7.5",
            "scheme": "-v2"
          },
          "1.15.2": {
            "url": "https://media.forgecdn.net/files/3106/440/CraftPresence-Fabric-1.15.2-Release-1.7.5.jar",
            "version": "1.7.5",
            "scheme": "-v2"
          },
          "1.14.4": {
            "url": "https://media.forgecdn.net/files/3106/438/CraftPresence-Fabric-1.14.4-Release-1.7.5.jar",
            "version": "1.7.5",
            "scheme": "-v2"
          }
        }
      },
      "id": "CraftPresence",
      "name": "CraftPresence",
      "author": "CDAGaming",
      "summary": "Completely Customize the way others see you play in Discord!",
      "description": [
        "Besides having the Ability to Change your Discord Status from \"Playing Minecraft\",",
        "This Mod offers plenty of Customization Options to specify entirely how others see you play.",
        "From Having Your Current Biome Show Up, To which Dimension you in, as well as which server you're in,",
        "The Customization Possibilities are limitless,",
        "with the only real limit being how creative you customize your display.",
        "Source at https://gitlab.com/CDAGaming/CraftPresence"
      ],
      "version": "1",
      "link": "",
      "sha1": "0"
    },
    {
      "fabric": {
        "fileName": "fabric-api",
        "versions": {
          "1.16.4": {
            "url": "https://media.forgecdn.net/files/3125/823/fabric-api-0.27.1%2B1.16.jar",
            "version": "0.27.1",
            "scheme": "-v2"
          },
          "1.16.3": {
            "url": "https://media.forgecdn.net/files/3053/746/fabric-api-0.20.2%2Bbuild.402-1.16.jar",
            "version": "0.20.2",
            "scheme": "-v2"
          },
          "1.16.2": {
            "url": "https://media.forgecdn.net/files/3049/174/fabric-api-0.20.1%2Bbuild.401-1.16.jar",
            "version": "0.20.1",
            "scheme": "-v2"
          },
          "1.16.1": {
            "url": "https://media.forgecdn.net/files/3007/384/fabric-api-0.15.0%2Bbuild.379-1.16.1.jar",
            "version": "0.15.0",
            "scheme": "-v2"
          },
          "1.16": {
            "url": "https://media.forgecdn.net/files/2985/289/fabric-api-0.13.1%2Bbuild.370-1.16.jar",
            "version": "0.13.1",
            "scheme": "-v2"
          },
          "1.15.2": {
            "url": "https://media.forgecdn.net/files/3007/375/fabric-api-0.15.0%2Bbuild.318-1.15.jar",
            "version": "0.15.0",
            "scheme": "-v2"
          },
          "1.15.1": {
            "url": "https://media.forgecdn.net/files/2844/436/fabric-api-0.4.25%2Bbuild.282-1.15.jar",
            "version": "0.4.25",
            "scheme": "-v2"
          },
          "1.15": {
            "url": "https://media.forgecdn.net/files/2839/348/fabric-api-0.4.23%2Bbuild.276-1.15.jar",
            "version": "0.4.23",
            "scheme": "-v2"
          },
          "1.14.4": {
            "url": "https://media.forgecdn.net/files/2756/853/fabric-api-0.3.1%2Bbuild.208.jar",
            "version": "0.3.1",
            "scheme": "-v2"
          }
        }
      },
      "id": "fabric-api",
      "name": "Fabric Api",
      "author": "Fabric Team",
      "summary": "Adds Fabric mod support for 1.14.4 through 1.16.4",
      "description": [
        "Adds Fabric mod support",
        "Supported versions are 1.14.4 through 1.16.4"
      ],
      "version": "1",
      "link": "",
      "sha1": "0"
    },
    {
      "fabric": {
        "fileName": "lithium-%mc%",
        "versions": {
          "1.16.3": {
            "url": "https://media.forgecdn.net/files/3063/230/lithium-fabric-mc1.16.3-0.5.6.jar",
            "version": "0.5.4",
            "scheme": "-v2"
          },
          "1.16.2": {
            "url": "https://media.forgecdn.net/files/3046/951/lithium-fabric-mc1.16.2-0.5.4.jar",
            "version": "0.5.4",
            "scheme": "-v2"
          },
          "1.16.1": {
            "url": "https://media.forgecdn.net/files/3000/628/lithium-fabric-mc1.16.1-0.5.1.jar",
            "version": "0.5.1",
            "scheme": "-v2"
          }
        }
      },
      "id": "lithium",
      "name": "Lithium",
      "author": "JellySquid",
      "summary": "Performance improvement mod",
      "description": [
        "Improves the general performance",
        "of Minecraft"
      ],
      "version": "1",
      "conflicts": [
        "optifine"
      ],
      "link": "",
      "sha1": "0"
    },
    {
      "fabric": {
        "fileName": "MovementInfo",
        "versions": {
          "1.16.4": {
            "url": "https://github.com/hen6003/MovementInfo/releases/latest/download/mi.jar",
            "version": "1.3.4",
            "scheme": "-v2"
          },
          "1.16.3": {
            "url": "https://github.com/hen6003/MovementInfo/releases/latest/download/mi.jar",
            "version": "1.3.4",
            "scheme": "-v2"
          },
          "1.16.2": {
            "url": "https://github.com/hen6003/MovementInfo/releases/latest/download/mi.jar",
            "version": "1.3.4",
            "scheme": "-v2"
          },
          "1.16.1": {
            "url": "https://github.com/hen6003/MovementInfo/releases/latest/download/mi.jar",
            "version": "1.3.4",
            "scheme": "-v2"
          },
          "1.16": {
            "url": "https://github.com/hen6003/MovementInfo/releases/latest/download/mi.jar",
            "version": "1.3.4",
            "scheme": "-v2"
          },
          "1.15.2": {
            "url": "https://github.com/hen6003/MovementInfo/releases/download/1.2.8/mi.jar",
            "version": "1.2.8",
            "scheme": "-v2"
          }
        }
      },
      "id": "MovementInfo",
      "name": "MovementInfo",
      "author": "hen6003",
      "summary": "Movement Info is a minecraft mod to show player movement info and BPS (blocks per second)",
      "description": [
        "Movement Info is a minecraft mod to show player movement info and BPS(blocks per second)",
        "MIT license, source at https://github.com/hen6003/MovementInfo",
        "Supported for Minecraft 1.15.2 to 1.16.4"
      ],
      "version": "1",
      "link": "",
      "sha1": "0"
    },
    {
      "fabric": {
        "fileName": "multiconnect",
        "versions": {
          "1.16.4": {
            "url": "https://github.com/Earthcomputer/multiconnect/releases/download/v1.3.33/multiconnect-1.3.33.jar",
            "version": "1.3.33",
            "scheme": "-v2"
          },
          "1.16.3": {
            "url": "https://github.com/Earthcomputer/multiconnect/releases/download/v1.3.32/multiconnect-1.3.32.jar",
            "version": "1.3.32",
            "scheme": "-v2"
          },
          "1.16.2": {
            "url": "https://github.com/Earthcomputer/multiconnect/releases/download/v1.3.18/multiconnect-1.3.18.jar",
            "version": "1.3.18",
            "scheme": "-v2"
          },
          "1.16.1": {
            "url": "https://github.com/Earthcomputer/multiconnect/releases/download/v1.3.8/multiconnect-1.3.8.jar",
            "version": "1.3.8",
            "scheme": "-v2"
          },
          "1.16": {
            "url": "https://github.com/Earthcomputer/multiconnect/releases/download/v1.3/multiconnect-1.3.jar",
            "version": "1.3",
            "scheme": "-v2"
          },
          "1.15.2": {
            "url": "https://github.com/Earthcomputer/multiconnect/releases/download/v1.2.9/multiconnect-1.2.9.jar",
            "version": "1.2.9",
            "scheme": "-v2"
          }
        }
      },
      "id": "multiconnect",
      "name": "MultiConnect",
      "author": "EarthComputer",
      "summary": "Allows you to join any mc version using the latest version",
      "description": [
        "Allows you to join Minecraft 1.8.x through 1.16.4 on the latest mc version",
        "MIT license, source at https://github.com/Earthcomputer/multiconnect",
        "Supported on Minecraft 1.15.2 through 1.16.4 - Recommended: 1.16.4"
      ],
      "version": "1",
      "link": "",
      "sha1": "0"
    },
    {
      "id": "optifine",
      "name": "OptiFine",
      "author": "sp614x",
      "summary": "Installs OptiFine for Aristois. Supports 1.14 to 1.16.4.",
      "description": [
        "Installs OptiFine for Aristois 1.14 through 1.16.4"
      ],
      "version": "1",
      "conflicts": [
        "sodium",
        "lithium",
        "phosphor"
      ],
      "link": "https://gitlab.com/EMC-Framework/maven/raw/master/marketplace/plugins/optifine/optifine.jar",
      "sha1": "d5c5bc462ed70f13dc0fc270c6c1b8293e55fa33"
    },
    {
      "fabric": {
        "fileName": "phosphor-%mc%",
        "versions": {
          "1.16.3": {
            "url": "https://media.forgecdn.net/files/2987/621/phosphor-fabric-mc1.16.1-0.6.0%2Bbuild.7.jar",
            "version": "0.6.0",
            "scheme": "-v2"
          },
          "1.16.2": {
            "url": "https://media.forgecdn.net/files/2987/621/phosphor-fabric-mc1.16.1-0.6.0%2Bbuild.7.jar",
            "version": "0.6.0",
            "scheme": "-v2"
          },
          "1.16.1": {
            "url": "https://media.forgecdn.net/files/2987/621/phosphor-fabric-mc1.16.1-0.6.0%2Bbuild.7.jar",
            "version": "0.6.0",
            "scheme": "-v2"
          }
        }
      },
      "id": "phosphor",
      "name": "Phosphor",
      "author": "JellySquid",
      "summary": "Lightning improvement mod",
      "description": [
        "Improves the lightning in mc",
        "and the performance of it"
      ],
      "version": "1",
      "conflicts": [
        "optifine"
      ],
      "link": "",
      "sha1": "0"
    },
    {
      "fabric": {
        "fileName": "SeedCracker",
        "versions": {
          "1.16.4": {
            "url": "https://github.com/KaptainWutax/SeedCracker/releases/download/v0.2.3-beta/seedcracker-0.2.3-beta.jar",
            "version": "v0.2.3-beta",
            "scheme": "-v2"
          },
          "1.16.3": {
            "url": "https://github.com/KaptainWutax/SeedCracker/releases/download/v0.2.2-beta/seedcracker-0.2.2-beta.jar",
            "version": "v0.2.2-beta",
            "scheme": "-v2"
          },
          "1.16.2": {
            "url": "https://github.com/KaptainWutax/SeedCracker/releases/download/v0.2.2-beta/seedcracker-0.2.2-beta.jar",
            "version": "v0.2.2-beta",
            "scheme": "-v2"
          },
          "1.16.1": {
            "url": "https://github.com/KaptainWutax/SeedCracker/releases/download/v0.2.1-beta/seedcracker-0.2.1-beta.jar",
            "version": "v0.2.1-beta",
            "scheme": "-v2"
          },
          "1.15.2": {
            "url": "https://github.com/KaptainWutax/SeedCracker/releases/download/v0.1.0-beta/seedcracker-0.1.0-beta.jar",
            "version": "v0.1.0-beta",
            "scheme": "-v2"
          },
          "1.15.1": {
            "url": "https://github.com/KaptainWutax/SeedCracker/releases/download/v0.1.0-beta/seedcracker-0.1.0-beta.jar",
            "version": "v0.1.0-beta",
            "scheme": "-v2"
          },
          "1.15": {
            "url": "https://github.com/KaptainWutax/SeedCracker/releases/download/v0.1.0-beta/seedcracker-0.1.0-beta.jar",
            "version": "v0.1.0-beta",
            "scheme": "-v2"
          }
        }
      },
      "id": "SeedCracker",
      "name": "SeedCracker",
      "author": "KaptainWutax",
      "summary": "Find the seed of any server, supports 1.15.x - 1.16.x.",
      "description": [
        "Installs the SeedCracker mod found at https://github.com/KaptainWutax/SeedCracker"
      ],
      "version": "1",
      "depends": [
        "fabric-api"
      ],
      "link": "",
      "sha1": "0"
    },
    {
      "fabric": {
        "fileName": "sodium-%mc%",
        "versions": {
          "1.16.3": {
            "url": "https://media.forgecdn.net/files/3067/101/sodium-fabric-mc1.16.3-0.1.0.jar",
            "version": "0.1.0",
            "scheme": "-v2"
          },
          "1.16.2": {
            "url": "https://media.forgecdn.net/files/3067/101/sodium-fabric-mc1.16.3-0.1.0.jar",
            "version": "0.1.0",
            "scheme": "-v2"
          },
          "1.16.1": {
            "url": "https://media.forgecdn.net/files/3003/93/sodium-fabric-mc1.16.1-0.1.0.jar",
            "version": "0.1.0",
            "scheme": "-v2"
          }
        }
      },
      "id": "sodium",
      "name": "Sodium",
      "author": "JellySquid",
      "summary": "Performance boosting mod",
      "description": [
        "This mod is similar to Optifine",
        "It aims to improve FPS and make the",
        "game more stable and enjoyable."
      ],
      "version": "1",
      "conflicts": [
        "optifine"
      ],
      "link": "",
      "sha1": "0"
    }
  ]
}